{
  "tiramisu":{
    "type":"video",
    "name":"Tiramisu",
    "spec":["15 min","0 min","8 pers"],
    "ingredients":[
      ["Nescafé Expresso","(3 c. à c)"],
      ["Chocolat Noir","(200g)"],
      ["Mascarpone","(500g)"],
      ["Sucre roux","(200g)"],
      ["Cacao","(2 c. à c)"],
      ["Oeufs","(6)"],
      ["Biscuits à la cuillère","(200g)"]
    ],
    "print":"//rscdn.storetail.net/coradrive/nestle/mesbonsreflexes/tg/doc/Nestle_MBR_tiramisu.pdf",
    "video": "//player.vimeo.com/video/131445084?color=9c9c9c&title=0&byline=0&portrait=0&autoplay=1&api=1&player_id=131445084"
  },
  "mille":{
    "type":"video",
    "name":"Mille feuille",
    "spec":["15 min","2 min","4 pers"],
    "ingredients":[
      ["Chocolat noir","(150g)"],
      ["Glace la Laitière","(12 boules)"],
      ["Framboises","(200g)"],
      ["Graines de sésame","(1 c. à s)"]
    ],
    "print":"//rscdn.storetail.net/coradrive/nestle/mesbonsreflexes/tg/doc/Nestle_MBR_mille_feuille.pdf",
    "video": "//player.vimeo.com/video/190695598?color=9c9c9c&title=0&byline=0&portrait=0&autoplay=1&api=1&player_id=190695598"
  },
  "charlotte":{
    "type":"video",
    "name":"Charlotte poires chocolat",
    "spec":["5 min","0 min","1 per"],
    "ingredients":[
      ["Nestlé P'tit gourmand","(1 coupelle)"],
      ["Nestlé P'tit biscuits","(2)"],
      ["Nestle Nidal","(1 messure)"],
      ["Chocolat","(1 carré)"],
      ["Poire","(1/2)"],
      ["Eau","(30ml)"]
    ],
    "print":"//rscdn.storetail.net/coradrive/nestle/mesbonsreflexes/tg/doc/Nestle_MBR_charlotte_poires_choco.pdf",
    "video": "//player.vimeo.com/video/190694475?color=9c9c9c&title=0&byline=0&portrait=0&autoplay=1&api=1&player_id=190694475"
  },
  "fougasse":{
    "type":"etapes",
    "name":"Fougasse",
    "spec":["20 min","150 min","5 per"],
    "ingredients":[
      ["Pâte à pizza HERTA","1"],
      ["Crème fraîche épaisse","1c.às."],
      ["Huile d'olive","1c.às."],
      ["Origan","1c.às."],
      ["Tranches de jambon HERTA","2"],
      ["Olives vertes","6"],
      ["Paprika","1c.às."]
    ],
    "print":"//rscdn.storetail.net/coradrive/nestle/mesbonsreflexes/tg/doc/Nestle_MBR_fougasse_aux_olives.pdf",
    "etapes": [
      "Préchauffez votre four th.7/8 (220°C) en chaleur traditionnelle. Déroulez la pâte à pizza sur la plaque de votre four en conservant la feuille de papier sulfurisé.",
      "Répartissez la crème, déposez au centre de la pâte à pizza une tranche de jambon puis la mozzarella, les olives terminez par la seconde tranche de jambon. Découpez dans la pâte de chaque côté des tranches de jambon des bandes de 2 cm, repliez le haut et le bas et rabattez les bandes vers le centre en les alternant. Mélangez l'huile d'olive avec le paprika, l'origan et badigeonnez la fougasse à l'aide d'un pinceau.",
      "Faites cuire 15 minutes environ dans le bas de votre four."
    ]
  },
  "blanquette":{
    "type":"video",
    "name":"Blanquette de veau",
    "spec":["15 min","40 min","6 pers"],
    "ingredients":[
      ["Oignons grelots","(12)"],
      ["Thym","(3 branches)"],
      ["Beurre","(20g)"],
      ["Farine","(20g)"],
      ["Laurier","(4 feuilles)"],
      ["Clous de girofle",""],
      ["Viande de veau","(1kg)"],
      ["Carottes","(1)"],
      ["Champignons de Paris","(250g)"],
      ["Fond de Volaille Maggi","(6c)"],
      ["Vin blanc","(100ml)"],
      ["Crème fraîche épaisse","(1 c. à s)"]
    ],
    "print":"//rscdn.storetail.net/coradrive/nestle/mesbonsreflexes/tg/doc/Nestle_MBR_blanquette_veau.pdf",
    "video": "//player.vimeo.com/video/131446269?color=9c9c9c&title=0&byline=0&portrait=0&autoplay=1&api=1&player_id=131446269"
  },
  "gratin":{
    "type":"video",
    "name":"Gratin Dauphinois",
    "spec":["20 min","50 min","6 pers"],
    "ingredients":[
      ["Pommes de terre à gratin","(1kg)"],
      ["Bâtonnets de Bouillon","(2)"],
      ["Crème liquide","(300ml)"],
      ["Lait demi-écrémé","(200ml)"],
      ["Ail","(2 gousses)"],
      ["Beurre","(1 noix)"]
    ],
    "print":"//rscdn.storetail.net/coradrive/nestle/mesbonsreflexes/tg/doc/Nestle_MBR_gratin_dauphinois.pdf",
    "video": "//player.vimeo.com/video/131446278?color=9c9c9c&title=0&byline=0&portrait=0&autoplay=1&api=1&player_id=131446278"
  }
}
